{
    "firstName":"Migal",
    "lastName":"Lewis",
    "occupation":"Full Stack Software Developer/ Tech Lead",
    "dateOfBirth":"1990-07-05",
    "emailAddress":"migallewis@gmail.com",
    "phoneNumber":"079 502 8226",
    "linkeden":"www.linkedin.com/in/migal-lewis-216244b2",
    "address":{
       "streetName":"56 Lovemore Road",
       "suburb":"Ravenswood",
       "city":"Boksburg",
       "country":"South Africa"
    },
    "image":"../../assets/images/profile.jpg",
    "aboutMe":"I am a helpful person that wants to make a difference in the world",
    "message":"My definition of a successful person is a person who has changed the world in someway",
    "favouritePokemon":[
       {
          "id":4,
          "name":"charmander",
          "image":"https://raw.githubusercontent.com/PokeAPI/sprites/master/sprites/pokemon/4.png",
          "extraInfo":null,
          "weight":"85",
          "height":"6",
          "species":"Lizard Pokémon",
          "description":"The fire on the tip of its tail is a\nmeasure of its life. If healthy,\nits tail burns intensely.",
          "types":[
             "fire"
          ]
       },
       {
          "id":197,
          "name":"umbreon",
          "image":"https://raw.githubusercontent.com/PokeAPI/sprites/master/sprites/pokemon/197.png",
          "extraInfo":null,
          "weight":"270",
          "height":"10",
          "species":"Moonlight Pokémon",
          "description":"When agitated,\nthis POKéMON pro­\ntects itself by\fspraying poisonous\nsweat from its\npores.",
          "types":[
             "dark"
          ]
       },
       {
          "id":330,
          "name":"flygon",
          "image":"https://raw.githubusercontent.com/PokeAPI/sprites/master/sprites/pokemon/330.png",
          "extraInfo":null,
          "weight":"820",
          "height":"20",
          "species":"Mystic Pokémon",
          "description":"FLYGON is nicknamed “the elemental \nspirit of the desert.” Because its\nflapping wings whip up a cloud of sand,\fthis POKéMON is always enveloped in a\nsandstorm while flying.",
          "types":[
             "ground",
             "dragon"
          ]
       },
       {
          "id":94,
          "name":"gengar",
          "image":"https://raw.githubusercontent.com/PokeAPI/sprites/master/sprites/pokemon/94.png",
          "extraInfo":null,
          "weight":"405",
          "height":"15",
          "species":"Shadow Pokémon",
          "description":"Under a full moon,\nthis POKéMON\nlikes to mimic\fthe shadows of\npeople and laugh\nat their fright.",
          "types":[
             "ghost",
             "poison"
          ]
       },
       {
          "id":448,
          "name":"lucario",
          "image":"https://raw.githubusercontent.com/PokeAPI/sprites/master/sprites/pokemon/448.png",
          "extraInfo":null,
          "weight":"540",
          "height":"12",
          "species":"Aura Pokémon",
          "description":"It has the ability to sense the\nauras of all things.\nIt understands human speech.",
          "types":[
             "fighting",
             "steel"
          ]
       },
       {
          "id":778,
          "name":"mimikyu-disguised",
          "image":"https://raw.githubusercontent.com/PokeAPI/sprites/master/sprites/pokemon/778.png",
          "extraInfo":null,
          "weight":"7",
          "height":"2",
          "species":"Disguise Pokémon",
          "description":"A lonely Pokémon, it conceals its terrifying\nappearance beneath an old rag so it can get\ncloser to people and other Pokémon.",
          "types":[
             "ghost",
             "fairy"
          ]
       }
    ],
    "googleItems":[
       {
          "id":1,
          "name":"Technology",
          "image":"https://images.pexels.com/photos/834949/pexels-photo-834949.jpeg?auto=compress&cs=tinysrgb&dpr=2&h=50&w=50",
          "extraInfo":"always interested in the latest tech",
          "rank":0,
          "googleExamples":[
             {
                "name":"Virtual Reality",
                "image":"https://images.pexels.com/photos/834949/pexels-photo-834949.jpeg?auto=compress&cs=tinysrgb&dpr=3&h=50&w=70",
                "extraInfo":null
             },
             {
                "name":"Argumented Reality",
                "image":"https://images.pexels.com/photos/163042/pokemon-pokemon-go-mobile-trends-smartphone-163042.jpeg?auto=compress&cs=tinysrgb&dpr=2&h=50&w=70",
                "extraInfo":null
             },
             {
                "name":"solid state battery",
                "image":"https://images.pexels.com/photos/258083/pexels-photo-258083.jpeg?auto=compress&cs=tinysrgb&dpr=2&h=50&w=70",
                "extraInfo":null
             },
             {
                "name":"Graphene",
                "image":"https://analyticalscience.wiley.com/do/10.1002/gitlab.15487/full/ib09424569f266f6d1c1af4a8473bc5c0.jpg",
                "extraInfo":"https://analyticalscience.wiley.com/do/10.1002/gitlab.15487/full/"
             },
             {
                "name":"Sky Scraper Concept",
                "image":"https://assets.newatlas.com/dims4/default/6cc7d10/2147483647/strip/true/crop/2400x1600+0+85/resize/2400x1600!/format/webp/quality/90/?url=http%3A%2F%2Fnewatlas-brightspot.s3.amazonaws.com%2Fdc%2F0f%2Ff1766fa84faea466283a5ceb8a3e%2Fvertical-emergency-skyscraper-0.jpg",
                "extraInfo":"https://newatlas.com/architecture/high-rise-hospital-concept-evolo-2020-skyscraper/"
             },
             {
                "name":"IOT",
                "image":"https://images.pexels.com/photos/1476321/pexels-photo-1476321.jpeg?auto=compress&cs=tinysrgb&dpr=2&h=50&w=70",
                "extraInfo":null
             }
          ]
       },
       {
          "id":2,
          "name":"Software",
          "image":"https://images.pexels.com/photos/546819/pexels-photo-546819.jpeg?auto=compress&cs=tinysrgb&dpr=2&h=50&w=50",
          "extraInfo":"stackoverflow, codepen , medium thank you for the help you have given me through my career",
          "rank":2,
          "googleExamples":[
             {
                "name":"Stack overflow",
                "image":"../../assets/images/google/so-logo.png",
                "extraInfo":"null"
             },
             {
                "name":"Udemy",
                "image":"../../assets/images/google/logo-udemy.svg",
                "extraInfo":"https://www.udemy.com/"
             },
             {
                "name":"Youtube",
                "image":"../../assets/images/google/logo-youtube.svg",
                "extraInfo":null
             },
             {
                "name":"mkyong",
                "image":"../../assets/images/google/logo-mkyong.webp",
                "extraInfo":"https://mkyong.com/"
             },
             {
                "name":"Codepen",
                "image":"../../assets/images/google/logo-codepen.svg",
                "extraInfo":"https://codepen.io/MigalLewis/pens/showcase"
             },
             {
                "name":"Medium",
                "image":"../../assets/images/google/logo-medium.svg",
                "extraInfo":null
             }
          ]
       },
       {
          "id":3,
          "name":"Icons",
          "image":"https://images.pexels.com/photos/6633/car-superhero-symbol-batman.jpg?auto=compress&cs=tinysrgb&dpr=2&h=50&w=50",
          "extraInfo":"every now and then it is nice to just read on some inspirational things",
          "rank":3,
          "googleExamples":[
             {
                "name":"Albert Einstein",
                "image":"../../assets/images/google/albertEinstein.jpeg",
                "extraInfo":null
             },
             {
                "name":"Nelson Mandela",
                "image":"../../assets/images/google/nelsonMandela.jpg",
                "extraInfo":null
             },
             {
                "name":"Leonardo Da Vinci",
                "image":"../../assets/images/google/daVinci.jpeg",
                "extraInfo":null
             },
             {
                "name":"Steve Wozniak",
                "image":"../../assets/images/google/wozniak.jpeg",
                "extraInfo":""
             }
          ]
       },
       {
          "id":4,
          "name":"Youtube",
          "image":"https://i.pinimg.com/originals/2d/2b/e2/2d2be2421911037d80f9921dc29d54c2.jpg",
          "extraInfo":"really great place for learning, and some entertainment",
          "rank":4,
          "googleExamples":[
             {
                "name":"PewDiePie",
                "image":"../../assets/images/google/pewdiepie.jpg",
                "extraInfo":"https://www.youtube.com/channel/UC-lHJZR3Gqxm24_Vd_AJ5Yw"
             },
             {
                "name":"VSauce",
                "image":"../../assets/images/google/vsauce.jpg",
                "extraInfo":"https://www.youtube.com/channel/UC6nSFpj9HTCZ5t-N3Rm3-HA"
             },
             {
                "name":"davehakkens",
                "image":"../../assets/images/google/davehakkens.jpg",
                "extraInfo":"https://www.youtube.com/user/hakopdetak"
             },
             {
                "name":"Tom Bilyeu",
                "image":"../../assets/images/google/tomBilyeu.jpg",
                "extraInfo":"https://www.youtube.com/channel/UCnYMOamNKLGVlJgRUbamveA"
             },
             {
                "name":"MarkRober",
                "image":"../../assets/images/google/markRober.jpg",
                "extraInfo":"https://www.youtube.com/channel/UCY1kMZp36IQSyNx_9h4mpCg"
             },
             {
                "name":"Physics Girl",
                "image":"../../assets/images/google/physicsGirl.jpg",
                "extraInfo":"https://www.youtube.com/channel/UC7DdEm33SyaTDtWYGO2CwdA"
             },
             {
                "name":"National Geographic",
                "image":"../../assets/images/google/nationalGeographic.jpg",
                "extraInfo":"https://www.youtube.com/channel/UCpVm7bg6pXKo1Pr6k5kxG9A"
             }
          ]
       },
       {
          "id":5,
          "name":"DIY",
          "image":"https://images.pexels.com/photos/301703/pexels-photo-301703.jpeg?auto=compress&cs=tinysrgb&dpr=2&h=50&w=50",
          "extraInfo":"love building and trying ouy new things",
          "rank":5,
          "googleExamples":[
             {
                "name":"Lumixen Art",
                "image":"../../assets/images/google/LumixenArt.jpg",
                "extraInfo":"https://www.youtube.com/channel/UCcYKe341QeYIWxOWirIZJrw"
             },
             {
                "name":"DIY Perks",
                "image":"../../assets/images/google/DiyPerks.jpg",
                "extraInfo":"https://www.youtube.com/channel/UCUQo7nzH1sXVpzL92VesANw"
             },
             {
                "name":"Instructables",
                "image":"../../assets/images/google/logo-instructables.png",
                "extraInfo":"https://www.instructables.com/"
             },
             {
                "name":"Hackaday",
                "image":"../../assets/images/google/logo-hackaday.png",
                "extraInfo":"https://hackaday.com/?gclid=CjwKCAjwtqj2BRBYEiwAqfzuryCXDbLWLAR_bS3eS94pcVosWve5Ej827DpDcEY_i9FxLKLP-aIIxhoCz9QQAvD_BwE"
             }
          ]
       },
       {
          "id":6,
          "name":"Netflix",
          "image":"https://lh3.googleusercontent.com/TBRwjS_qfJCSj1m7zZB93FnpJM5fSpMA_wUlFDLxWAb45T9RmwBvQd5cWR5viJJOhkI",
          "extraInfo":"I watch atleast one series a day, Stranger things has to be my favourite from netflix",
          "rank":6,
          "googleExamples":[
             {
                "name":"Stranger Things",
                "image":"../../assets/images/google/strangerThings.jpg",
                "extraInfo":null
             },
             {
                "name":"Orphan Black",
                "image":"../../assets/images/google/orphanBlack.png",
                "extraInfo":null
             },
             {
                "name":"You",
                "image":"../../assets/images/google/you.png",
                "extraInfo":null
             },
             {
                "name":"Brooklyn Nine Nine",
                "image":"../../assets/images/google/brooklyn99.jpg",
                "extraInfo":""
             },
             {
                "name":"Full Metal Alchemist",
                "image":"../../assets/images/google/fullMetalAlchemist.jpg",
                "extraInfo":null
             },
             {
                "name":"Final Space",
                "image":"../../assets/images/google/finalSpace.jpg",
                "extraInfo":""
             }
          ]
       },
       {
          "id":8,
          "name":"Soccer/Football",
          "image":"https://images.pexels.com/photos/47730/the-ball-stadion-football-the-pitch-47730.jpeg?auto=compress&cs=tinysrgb&dpr=2&h=50&w=50",
          "extraInfo":"Latest transfer gossip, Man united , premier league and uefa",
          "rank":8,
          "googleExamples":[
             {
                "name":"One Football",
                "image":"../../assets/images/google/oneFootball.jpeg",
                "extraInfo":""
             },
             {
                "name":"Man Utd App",
                "image":"../../assets/images/google/manUnited.png",
                "extraInfo":""
             },
             {
                "name":"Man Utd Youtube channel",
                "image":"../../assets/images/google/manUnitedYT.jpg",
                "extraInfo":"https://www.youtube.com/channel/UC6yW44UGJJBvYTlfC7CRg2Q"
             },
             {
                "name":"UnitedPeoplesTV",
                "image":"../../assets/images/google/unitedPeoplesTv.jpg",
                "extraInfo":"https://www.youtube.com/channel/UCEfEaGKGSxy8ZYIV1RWLbCQ"
             }
          ]
       },
       {
          "id":7,
          "name":"Animals",
          "image":"https://images.pexels.com/photos/46254/leopard-wildcat-big-cat-botswana-46254.jpeg?auto=compress&cs=tinysrgb&dpr=2&h=50&w=50",
          "extraInfo":"Whales, Leopard, Octopus, Dogs and Wolves are some of my favourite",
          "rank":7,
          "googleExamples":[
             {
                "name":"Africa",
                "image":"../../assets/images/google/africa.jpeg",
                "extraInfo":""
             },
             {
                "name":"The Most Intelligent Animal on Earth?",
                "image":"../../assets/images/google/octopus.jpeg",
                "extraInfo":"https://www.youtube.com/watch?v=GJor1sk_JDI"
             },
             {
                "name":"Our Planet",
                "image":"../../assets/images/google/ourPlanet.jpg",
                "extraInfo":"https://www.youtube.com/watch?v=GJor1sk_JDI"
             }
          ]
       }
    ],
    "hobbies":null,
    "skills":[
       {
          "id":1,
          "name":"Java",
          "score":8,
          "yearsExperience":7,
          "image":"../../assets/images/skills/java.png"
       },
       {
          "id":2,
          "name":"Springboot",
          "score":8,
          "yearsExperience":3,
          "image":"../../assets/images/skills/springboot.png"
       },
       {
          "id":3,
          "name":"Angular",
          "score":8,
          "yearsExperience":3,
          "image":"../../assets/images/skills/angular.png"
       },
       {
          "id":4,
          "name":"Html",
          "score":9,
          "yearsExperience":6,
          "image":"../../assets/images/skills/html.png"
       },
       {
          "id":5,
          "name":"Css",
          "score":7,
          "yearsExperience":6,
          "image":"../../assets/images/skills/css.png"
       },
       {
          "id":6,
          "name":"Javascript",
          "score":6,
          "yearsExperience":3,
          "image":"../../assets/images/skills/javascript.png"
       },
       {
          "id":7,
          "name":"Bash",
          "score":7,
          "yearsExperience":6,
          "image":"../../assets/images/skills/bash.png"
       },
       {
          "id":8,
          "name":"Kuberenetes",
          "score":7,
          "yearsExperience":3,
          "image":"../../assets/images/skills/kubernetes.png"
       },
       {
          "id":9,
          "name":"Openshift",
          "score":7,
          "yearsExperience":2,
          "image":"../../assets/images/skills/openshift.png"
       },
       {
          "id":10,
          "name":"Bamboo",
          "score":6,
          "yearsExperience":2,
          "image":"../../assets/images/skills/logo-bamboo.svg"
       },
       {
          "id":11,
          "name":"Jenkins",
          "score":6,
          "yearsExperience":2,
          "image":"../../assets/images/skills/logo-jenkins.svg"
       },
       {
          "id":12,
          "name":"Chef",
          "score":5,
          "yearsExperience":2,
          "image":"../../assets/images/skills/logo-chef.svg"
       },
       {
          "id":13,
          "name":"Git",
          "score":8,
          "yearsExperience":5,
          "image":"../../assets/images/skills/logo-git.png"
       },
       {
          "id":14,
          "name":"Svn",
          "score":4,
          "yearsExperience":2,
          "image":"../../assets/images/skills/logo-svn.jpg"
       },
       {
          "id":15,
          "name":"Postgres",
          "score":7,
          "yearsExperience":3,
          "image":"../../assets/images/skills/logo-postgres.png"
       },
       {
          "id":16,
          "name":"Mysql",
          "score":7,
          "yearsExperience":5,
          "image":"../../assets/images/skills/logo-mysql.png"
       },
       {
          "id":17,
          "name":"Mongo db",
          "score":7,
          "yearsExperience":4,
          "image":"../../assets/images/skills/logo-mongodb.svg"
       },
       {
          "id":18,
          "name":"Db2",
          "score":7,
          "yearsExperience":3,
          "image":"../../assets/images/skills/logo-db2.png"
       },
       {
          "id":19,
          "name":"Microsoft sql server",
          "score":7,
          "yearsExperience":3,
          "image":"../../assets/images/skills/logo-msSqlServer.svg"
       },
       {
          "id":20,
          "name":"H2",
          "score":5,
          "yearsExperience":2,
          "image":"../../assets/images/skills/logo-h2.png"
       },
       {
          "id":21,
          "name":"neo4j",
          "score":4,
          "yearsExperience":1,
          "image":"../../assets/images/skills/logo-neo4j.png"
       },
       {
          "id":22,
          "name":"typescript",
          "score":7,
          "yearsExperience":3,
          "image":"../../assets/images/skills/logo-typescript.svg"
       },
       {
          "id":23,
          "name":"grunt",
          "score":2,
          "yearsExperience":2,
          "image":"../../assets/images/skills/logo-grunt.svg"
       },
       {
          "id":24,
          "name":"gulp",
          "score":2,
          "yearsExperience":1,
          "image":"../../assets/images/skills/logo-gulp.svg"
       },
       {
          "id":25,
          "name":"Restful webservices",
          "score":8,
          "yearsExperience":4,
          "image":"../../assets/images/skills/logo-rest.png"
       },
       {
          "id":26,
          "name":"soap",
          "score":6,
          "yearsExperience":3,
          "image":"../../assets/images/skills/logo-soap.png"
       },
       {
          "id":27,
          "name":"json",
          "score":9,
          "yearsExperience":4,
          "image":"../../assets/images/skills/logo-json.png"
       },
       {
          "id":28,
          "name":"xml",
          "score":9,
          "yearsExperience":4,
          "image":"../../assets/images/skills/logo-xml.png"
       },
       {
          "id":29,
          "name":"JEE",
          "score":6,
          "yearsExperience":3,
          "image":"../../assets/images/skills/logo-jee.webp"
       },
       {
          "id":30,
          "name":"Jsf Primefaces",
          "score":6,
          "yearsExperience":3,
          "image":"../../assets/images/skills/logo-primefaces.png"
       },
       {
          "id":31,
          "name":"Jpa",
          "score":5,
          "yearsExperience":3,
          "image":"../../assets/images/skills/logo-jpa.png"
       },
       {
          "id":32,
          "name":"JaxB",
          "score":6,
          "yearsExperience":3,
          "image":"../../assets/images/skills/logo-jaxB.jpg"
       },
       {
          "id":33,
          "name":"JavaFx",
          "score":6,
          "yearsExperience":3,
          "image":"../../assets/images/skills/logo-javafx.png"
       },
       {
          "id":34,
          "name":"Apache Poi",
          "score":6,
          "yearsExperience":2,
          "image":"../../assets/images/skills/logo-poi.png"
       },
       {
          "id":35,
          "name":"Wildfly",
          "score":6,
          "yearsExperience":3,
          "image":"../../assets/images/skills/logo-wildfly.png"
       },
       {
          "id":36,
          "name":"Jboss",
          "score":6,
          "yearsExperience":3,
          "image":"../../assets/images/skills/logo-jboss.png"
       },
       {
          "id":37,
          "name":"hibernate",
          "score":3,
          "yearsExperience":3,
          "image":"../../assets/images/skills/logo-hibernate.jpg"
       },
       {
          "id":38,
          "name":"EJB3",
          "score":4,
          "yearsExperience":3,
          "image":"../../assets/images/skills/logo-ejb3.jpg"
       },
       {
          "id":39,
          "name":"Drools",
          "score":6,
          "yearsExperience":2,
          "image":"../../assets/images/skills/logo-drools.png"
       },
       {
          "id":40,
          "name":"Lombok",
          "score":8,
          "yearsExperience":5,
          "image":"../../assets/images/skills/logo-lombok.png"
       },
       {
          "id":41,
          "name":"Gcloud",
          "score":7,
          "yearsExperience":2,
          "image":"../../assets/images/skills/logo-cloud.svg"
       },
       {
          "id":42,
          "name":"aws",
          "score":6,
          "yearsExperience":1,
          "image":"../../assets/images/skills/logo-aws.png"
       },
       {
          "id":43,
          "name":"firebase",
          "score":8,
          "yearsExperience":2,
          "image":"../../assets/images/skills/logo-firebase.png"
       },
       {
          "id":44,
          "name":"azure",
          "score":7,
          "yearsExperience":2,
          "image":"../../assets/images/skills/logo-azure.svg"
       },
       {
          "id":45,
          "name":"Ubuntu",
          "score":8,
          "yearsExperience":6,
          "image":"../../assets/images/skills/logo-ubuntu.png"
       },
       {
          "id":46,
          "name":"Nativescript",
          "score":6,
          "yearsExperience":1,
          "image":"../../assets/images/skills/logo-nativescript.png"
       },
       {
          "id":47,
          "name":"Trello",
          "score":8,
          "yearsExperience":3,
          "image":"../../assets/images/skills/logo-trello.svg"
       },
       {
          "id":48,
          "name":"Bitbucket",
          "score":8,
          "yearsExperience":4,
          "image":"../../assets/images/skills/logo-bitbucket.svg"
       },
       {
          "id":49,
          "name":"Redhat Linux",
          "score":7,
          "yearsExperience":3,
          "image":"../../assets/images/skills/logo-redhat.png"
       }
    ],
    "experienceList":[
       {
          "id":null,
          "image":"../../assets/images/experience/FNB-Bank.png",
          "dateFrom":"2013-02-01",
          "dateTo":"2015-10-31",
          "company":"FNB Life",
          "position":"Intern and then Junior Developer",
          "description":"FNB Life, I learnt a lot here",
          "projects":[
             {
                "name":"Application Monitor",
                "emoticon":"fun",
                "role":"1 of 3 Developers,I worked on back-end and front-end",
                "shortDescription":"A Dashboard application that monitors our other applications",
                "details":"I worked on and created the Full front-end of this app as well some back-end.I also handled the deployments to the different environmentsThe project went live successfully. I now solely maintained and added new features to this application",
                "technologies":[
                   "Jsf-Primefaces ",
                   "Javascript",
                   "Java 7",
                   "JEE 7 ",
                   "EJB 3",
                   "Jboss As 7",
                   "Restful webservices",
                   "Soap Webservices",
                   "Db2"
                ]
             },
             {
                "name":"Icam Daily reporting tool",
                "emoticon":"easy",
                "role":"I solely created this small project from front to back",
                "shortDescription":"A program that collects user information and creates a report",
                "details":"This is a program that was created to fix an audit exception ,it  connects to different databases and  creates reports on all users using the different systems in Fnb Life and stores it on a server  where the auditing company can pick it daily using their program . It connects to Microsoft sql server, several Db2 schemas, Mysql and Ldap",
                "technologies":[
                   "Wildfly",
                   "Hibernate",
                   "Java 8",
                   "JEE 7 ",
                   "EJB 3",
                   "Jboss As 7",
                   "Restful webservices",
                   "Jsf-Primefaces"
                ]
             },
             {
                "name":"Voice Recording Migration",
                "emoticon":"fun_challenge",
                "role":"I solely migrated over a million voice recordings from momentum servers to Fnb servers",
                "shortDescription":"A script that converted voice recordings, migrated to a new server and linked new location to database",
                "details":"When FNB life moved from being underwritten by momentum to having own Insurance licence.We had to migrate all customer voice recordings from a custom momentum Vox type to mp3 and then link to customer on fnb database.over a million voice recordings needed to be migrated  from momentum servers to Fnb servers",
                "technologies":[
                   " Bash Script",
                   "Db2"
                ]
             },
             {
                "name":"Flip",
                "emoticon":"hard_work",
                "role":"I  worked a lot on the front-end, and also the scheduling",
                "shortDescription":"A program used by a call center to handle claims, policy servicing, the workflow and managing of call center staff ",
                "details":"This was my only project at Fnb that did not go Live.It was one of the biggest and one of the time I have worked the hardest most weekends,and 11 to 12 hours in a day>It was sad it did not go live But we learned so much from it that I am still proud of it.",
                "technologies":[
                   "Java 7",
                   "JEE 7",
                   "EJB 3",
                   "ESB",
                   "Jboss as 6",
                   "Java mail",
                   "Soap",
                   "db2",
                   "JAXB",
                   "XML",
                   "XSD",
                   "Hibernate",
                   "Javafx",
                   "dozer"
                ]
             },
             {
                "name":"LeeLoo",
                "emoticon":"easy",
                "role":"I maintained the server, add  users permissions, fixed and created new queries connecting to the different  servers ",
                "shortDescription":"leeloo is a delphi program that allows managers to generate csv's on claims, and their staff monthly progress",
                "details":"This application was a bunch set queries connecting to multiple databases, it had a simple user interface that users selected items to generate  reports",
                "technologies":[
                   "Sql",
                   "delphi"
                ]
             },
             {
                "name":"Document Migration",
                "emoticon":"fun_challenge",
                "role":"I solely Research and develop a solution to migrate data to an existing FNB Application",
                "shortDescription":"A solution to migrate over 20 Million client Documents from a Microsoft sql server storage to Documentum(storage system that Fnb uses) for last few years, archive for legacy items and metadata to DB2",
                "details":"When most of the Disengagement from momentum project was nearly complete we had to start migrating documents. I thought of three solutions to test, Pentaho data integration,JEE program,combination of Pentaho and java\nI went with my program because it ended up moving the documents and updating the tables the fastest.The migration of Dev, Test ,Pre and Prod environment has been successfully migrated.",
                "technologies":[
                   " Java 8",
                   "wildly 9",
                   "JEE7",
                   "Restful webservices",
                   "Hibernate",
                   "Ejb3"
                ]
             },
             {
                "name":"Embedded Billing and Claims",
                "emoticon":"ehh",
                "role":"maintained and added new features  and products",
                "shortDescription":"Reporting programs used by the finance teams to create and send reports",
                "details":"two applications that got financial data from the database for various insurance products,this was mainly for 3rd party companies that used fnb to underwrite their Credit facilities",
                "technologies":[
                   "Apache poi",
                   "JDBC",
                   "Java Mail",
                   "java 6"
                ]
             },
             {
                "name":"Workflow System",
                "emoticon":"fun_challenge",
                "role":"Worked on and designed the framework for the front-end.front-end and back-end of user Authentication, front-end and back-end of Email customers, front-end and back-end of User Administration, I added filtering systems and an esb scheduler, Digi tag integration (security Tag that allows you connect to our program from anywhere)",
                "shortDescription":"A workflow system used by the call center",
                "details":"Disengagement project to replace a program called AWD, This systems handles the workflow of the users in the call centre. This project Integrates with several programs including EDS (a c# storage system), PostmanPat (java Letter delivery system) and a mail server for incoming emails from clients it was used call center agents to handle claims and policy servicing and managers to manage the call center agents",
                "technologies":[
                   "JavaFX",
                   "Java 7",
                   "JEE 7",
                   "EJB 3",
                   "ESB",
                   "Jboss as 6",
                   "Java mail",
                   "Soap",
                   "db2",
                   "JAXB",
                   "XML",
                   "XSD",
                   "Hibernate"
                ]
             },
             {
                "name":"Other things I did at FNB",
                "emoticon":"easy",
                "role":"",
                "shortDescription":"",
                "details":"work on and maintained various Queries on Pentaho\nmaintain the two mailbox server  \nHandle Eds database(microsoft sql server) issues ",
                "technologies":[
                   "Pentaho",
                   "Microsoft Sql Server",
                   "mail server",
                   "sql"
                ]
             }
          ]
       },
       {
          "id":null,
          "image":"../../assets/images/experience/Barclays-Logo.png",
          "dateFrom":"2016-11-01",
          "dateTo":"2016-06-30",
          "company":"Barclays Africa",
          "position":"Analyst Developer",
          "description":"I did not do a lot at Barclays and it was the reason that I had to leave",
          "projects":[
             {
                "name":"Africa Banking App",
                "emoticon":"easy",
                "role":"I was hired as a Java Analyst developer in a new team of 35",
                "shortDescription":" new features and restructuring an existing core banking application that gets used in 7 different countries within Africa",
                "details":"The project was still waiting for sign off. Attended training on their system, such as payments,standards that they follow and their architecture",
                "technologies":[
                   "Java 5",
                   "soapUi"
                ]
             },
             {
                "name":"Other things I did at Barclays",
                "emoticon":"easy",
                "role":"",
                "shortDescription":"",
                "details":"Start and structure the Wiki for team South Africa.\nKornshell script to check project versioning and naming conventions.\nI did quite a bit Knowledge sharing sessions.\nHelped our Head of department with small tasks, such as collecting new joiners and showing them around, providing them with laptops, and all the software they required. Helped Head of Department with Project management when the project manager left.",
                "technologies":[
                   "kornshell",
                   "Microsoft Projects",
                   "Microsoft One note"
                ]
             }
          ]
       },
       {
          "id":null,
          "image":"../../assets/images/experience/BBD-logo.png",
          "dateFrom":"2016-07-01",
          "dateTo":"2019-01-31",
          "company":"BBD",
          "position":"Intermediate Developer",
          "description":"Most probably the best place I work at",
          "projects":[
             {
                "name":"MICRO-SERVICE RESEARCH AND DEVELOPMENT ( JUNE 2016 - SEPT 2016  )",
                "emoticon":"fun",
                "role":"I was part of a team of 4, and was in charge of the front-end research.",
                "shortDescription":"Research micro-services and how we can use them in the bank",
                "details":" • Research current systems that are used in Standard Bank - Internet Banking , Chef Deployment Tool , Atlassian Stash , Bamboo • Research Micro Service Technologies And Tools - Springboot ,Docker ,Kubernetes",
                "technologies":[
                   "Springboot",
                   "Ruby",
                   "Java 8",
                   "Chef",
                   "Docker",
                   "Angular 1",
                   "Javascript",
                   "html"
                ]
             },
             {
                "name":"ACCOUNT ORIGINATION PROJECT ( Oct 2016 - Mar 2017  )",
                "emoticon":"fun_challenge",
                "role":"I was part of team of 20. I did a lot of front-end work, mentoring and some back-end development.",
                "shortDescription":"After researching we merged with the account origination team, to create Account origination micro-service and use it with the mobile app and web app.",
                "details":" I created the java Architype for a Standard bank micro-service, so that it is easy for other people to get started on micro-services. I implemented 7 of the 10 Savings and Investments products on the Standardbank Internet Banking. Mentored 2 interns on front-end and back-end development. They implemented 3/10 products.Our first time we went  live was in January and then every month from then on wards as scheduled. Kubernetes did not go live because the Architects prohibited the technology , due to no paid support. Created Chef projects to do deployments.",
                "technologies":[
                   "Springboot",
                   "Java 8",
                   "Docker",
                   "Angular 1",
                   "Javascript",
                   "html",
                   "Openshift"
                ]
             },
             {
                "name":"CUSTOMER ORIGINATION PROJECT  ( Apr 2017 - SEPT 2017  )",
                "emoticon":"ehh",
                "role":"I was part of a team of 4, and was in charge of the front-end research.",
                "shortDescription":"After front-end successful project with Account origination team we merged with the customer origination team to create Customer origination micro-service and use it with the mobile app ,web app, and branch system.",
                "details":" Created the Customer Origination micro-service with services that created a customer, check if the customer exists, get documents from 3rd party companies, validate customer via fingerprint. This did not go live due to a decision that was made to create a new branch system. The customer origination will be one of the first features on the new system.",
                "technologies":[
                   "Springboot",
                   "Ruby",
                   "Java 8",
                   "Chef",
                   "Docker",
                   "Angular 1",
                   "Javascript",
                   "html"
                ]
             },
             {
                "name":"Staff Web ( SEPT 2017 - JAN 2019  )",
                "emoticon":"fun_challenge",
                "role":"I was part of the original team of 8, which then grew to about 20. I was a full-stack developer working on front-end,back-end, dev-ops, and wherever I was needed.",
                "shortDescription":"I formed part of a new team that would create a new, and modern web application that will be used in branches, and the call centre. The application is a single sign-on app that will be a container for all other applications being used in branches and call centres. ",
                "details":"I created the Customer Domain micro-service, with services that searches existing customers on multiple databases and countries, bringing back multiple customer statuses, created authorisation for what services users can use, worked on the front-end of our single sign-on authentication, dockerised micro-services, created and maintained project deployment on Openshift, created a local environment to make it easier for the team to work, created build pipelines on Bamboo. worked on a security domain POC with a group of architects, worked on multiple features on the front-end, worked on integration between the existing branch application, and Staffweb(back-end and front-end), Worked on integration between the existing Homeloans application and Staffweb (back-end and front-end).",
                "technologies":[
                   "Springboot",
                   "Java 8",
                   "Docker",
                   "typescript",
                   "Angular 7",
                   "html",
                   "Openshift",
                   " mongodb"
                ]
             }
          ]
       },
       {
          "id":null,
          "image":"../../assets/images/experience/omnipresent.jpg",
          "dateFrom":"2019-02-01",
          "dateTo":"1700-05-01",
          "company":"'Omnipresent'",
          "position":"Senior Developer, Tech Lead",
          "description":"I have joined a friend of mine on a startup company that aims to give large companies more visibility on the companies infrastructure. we do this using drones and IOT devices to collect data that we would then analyse and build applications to help the company run more efficiently. My role is to lead the technical team into achieving what our clients needs, as well as developing the teams personal growth.",
          "projects":[
             {
                "name":"Transnet Container Tracker",
                "emoticon":"hard_work",
                "role":"I built the full application(frontend, device, services and cloud infrastructure ) while leading one junior dev",
                "shortDescription":"This was a POC for a contactless solution for tracking Containers last position within the yard.",
                "details":"Transnet had an issue of containers going missing within the yard and would only find them two days later. Our solution had to be contactless so we used computer vision, Gps and altitude sensor to determine where the container was last placed. I worked on this project while still working at Bbd and Standard bank. I focused on this on use my weekends and nights. these 3 months have been the most challenging of my career so far. The POC went well, and demo was a success, but we unfortunately did not proceed with the project due to politics within the company we assisted",
                "technologies":[
                   "Java 8",
                   "OpenCv",
                   "Azure",
                   "rasberry pi",
                   "pi camera",
                   "python"
                ]
             },
             {
                "name":"Transnet Track and Trace",
                "emoticon":"easy",
                "role":"I soley developed the front-end",
                "shortDescription":"A system to track where containers are, in near realtime.",
                "details":"Transnet was running out of time to create this system, one section that they were struggling with was the front-end. We were given a 3 month contract to develop the app in time for a Digital day, in which they would invite all their clients such as Ford and Toyota to see the new tech coming. I built the front-end within a month and had them ready for the Digital day. This was a POC which the clients loved and is a project they will start implementing.",
                "technologies":[
                   "Angular 7",
                   "Azure maps",
                   " Azure cosmodb"
                ]
             },
             {
                "name":"Transnet Digital Day App",
                "emoticon":"easy",
                "role":"I worked with the marketing team and their branding team to develop an event app.",
                "shortDescription":"An event application to guide clients on speakers, applications, and times of what was to be displayed on the day.",
                "details":"Because I had finished their Track and Trace in good time, and they liked the design that they asked me to help the marketing team develop an app that they will use for the Digital day. I originally built it using nativescript but had to stop because we were unable to get the Apple store certificates in time, therefore, I had to change it to a responsive web app",
                "technologies":[
                   "Angular 7",
                   " Azure cosmo db",
                   "Azure"
                ]
             },
             {
                "name":"American Tower Corporation Monitoring",
                "emoticon":"fun_challenge",
                "role":"I lead and develop software in a team of 11 members.",
                "shortDescription":"Monitoring application for ATC towers.",
                "details":"This POC is an IOT and machine learning solution that monitors the antennas on ATC's towers. We have 3 phases of the project in lab solution which we had to build the software, and demo to ATC's Top management. The project went well and we moved on to the 2nd phase.The 2cnd phase was the development of the devices and a 6 month onsite test this is the phase we are currently in. if this is a success we move into 3rd phase where it will be mass manufacturing and distributing.",
                "technologies":[
                   "Springboot",
                   "Java 8",
                   "Docker",
                   "typescript",
                   "Angular 7",
                   "html",
                   "kubernetes",
                   "GCloud",
                   "C",
                   "python",
                   "firebase",
                   "gcloud"
                ]
             }
          ]
       }
    ]
 }